{
    "TTbar_dl1": {
        "ds": "/TTTo2L2Nu_TuneCP5_13TeV-powheg-pythia8/RunIIFall17MiniAODv2-PU2017_12Apr2018_94X_mc2017_realistic_v14-v1/MINIAODSIM",
        "maxlumis": -1,
        "mem_cfg": "cfg_noME.py",
        "perjob": 50,
        "runtime": 20,
        "script": "heppy_crab_script.sh",
        "isNANOAOD" : False
    },
    "TTbar_dl2": {
        "ds": "/TTTo2L2Nu_TuneCP5_PSweights_13TeV-powheg-pythia8/RunIIFall17MiniAODv2-PU2017_12Apr2018_94X_mc2017_realistic_v14-v1/MINIAODSIM",
        "maxlumis": -1,
        "mem_cfg": "cfg_noME.py",
        "perjob": 50,
        "runtime": 20,
        "script": "heppy_crab_script.sh",
        "isNANOAOD" : False
    },    
    "TTbar_had1": {
        "ds": "/TTToHadronic_TuneCP5_13TeV-powheg-pythia8/RunIIFall17MiniAODv2-PU2017_12Apr2018_94X_mc2017_realistic_v14-v1/MINIAODSIM",
        "maxlumis": -1,
        "mem_cfg": "cfg_noME.py",
        "perjob": 12,
        "runtime": 24,
        "script": "heppy_crab_script.sh",
        "isNANOAOD" : False
    },
    "TTbar_had2": {
        "ds": "/TTToHadronic_TuneCP5_PSweights_13TeV-powheg-pythia8/RunIIFall17MiniAODv2-PU2017_12Apr2018_94X_mc2017_realistic_v14-v1/MINIAODSIM ",
        "maxlumis": -1,
        "mem_cfg": "cfg_noME.py",
        "perjob": 12,
        "runtime": 24,
        "script": "heppy_crab_script.sh",
        "isNANOAOD" : False
    },
    "TTbar_sl1": {
        "ds": "/TTToSemiLeptonic_TuneCP5_PSweights_13TeV-powheg-pythia8/RunIIFall17MiniAODv2-PU2017_12Apr2018_94X_mc2017_realistic_v14-v1/MINIAODSIM",
        "maxlumis": -1,
        "mem_cfg": "cfg_noME.py",
        "perjob": 50,
        "runtime": 20,
        "script": "heppy_crab_script.sh",
        "isNANOAOD" : False
    },
    "TTWQQ": {
        "ds": "/TTWJetsToQQ_TuneCP5_13TeV-amcatnloFXFX-madspin-pythia8/RunIIFall17MiniAODv2-PU2017_12Apr2018_94X_mc2017_realistic_v14-v1/MINIAODSIM",
        "maxlumis": -1,
        "mem_cfg": "cfg_noME.py",
        "perjob": 50,
        "runtime": 20,
        "script": "heppy_crab_script.sh",
        "isNANOAOD" : False
    },
    "TTZQQ": {
        "ds": "/TTZToQQ_TuneCP5_13TeV-amcatnlo-pythia8/RunIIFall17MiniAODv2-PU2017_12Apr2018_94X_mc2017_realistic_v14-v1/MINIAODSIM",
        "maxlumis": -1,
        "mem_cfg": "cfg_noME.py",
        "perjob": 50,
        "runtime": 20,
        "script": "heppy_crab_script.sh",
        "isNANOAOD" : False
    },
}
